<svg width="32" height="32" viewBox="0 0 32 32" fill="none" xmlns="http://www.w3.org/2000/svg">
<g clip-path="url(#clip0_442_1222)">
<path d="M28.7743 10.3489C29.4601 10.3489 30.1177 10.6213 30.6026 11.1062C31.0875 11.5911 31.3599 12.2487 31.3599 12.9345V21.9745C31.3599 22.6602 31.0875 23.3179 30.6026 23.8028C30.1177 24.2877 29.4601 24.5601 28.7743 24.5601H26.3071V28.5921L22.2751 24.5601H14.9503C14.2646 24.5601 13.6069 24.2877 13.1221 23.8028C12.6372 23.3179 12.3647 22.6602 12.3647 21.9745V13.4625C12.3647 12.6367 12.6928 11.8447 13.2767 11.2608C13.8606 10.6769 14.6526 10.3489 15.4783 10.3489H26.0383" stroke="#171321" stroke-width="1.33321" stroke-linecap="round" stroke-linejoin="round"/>
<path d="M0.639648 15.04C0.639648 15.726 0.911956 16.384 1.39676 16.8694C1.88156 17.3548 2.53921 17.6279 3.22525 17.6288H5.69245V21.6511L9.72444 17.6223H17.0492C17.7342 17.6215 18.3909 17.3493 18.8755 16.8652C19.3601 16.3812 19.6331 15.7249 19.6348 15.04V5.99676C19.6348 5.31072 19.3625 4.65273 18.8777 4.16733C18.3929 3.68193 17.7353 3.40881 17.0492 3.40796H3.22525C2.53921 3.40881 1.88156 3.68193 1.39676 4.16733C0.911956 4.65273 0.639648 5.31072 0.639648 5.99676V12.7616" stroke="#171321" stroke-width="1.33321" stroke-linecap="round" stroke-linejoin="round"/>
</g>
<defs>
<clipPath id="clip0_442_1222">
<rect width="32" height="32" fill="white"/>
</clipPath>
</defs>
</svg>
