<svg width="24" height="25" viewBox="0 0 24 25" fill="none" xmlns="http://www.w3.org/2000/svg">
<g clip-path="url(#clip0_391_822)">
<path d="M18.5 9.41113L16.5 24.4111H7.5L5.5 9.41113" stroke="#A989F5" stroke-miterlimit="10"/>
<path d="M2.5 9.41113H21.5" stroke="#A989F5" stroke-miterlimit="10"/>
<path d="M7.5 9.41135V6.58135C7.5 5.97135 7.83 5.40135 8.35 5.09135L9.14 4.63135" stroke="#A989F5" stroke-miterlimit="10"/>
<path d="M10.8344 1.64134L9.73458 2.27634C8.92626 2.74302 8.64932 3.77661 9.116 4.58492C9.58268 5.39324 10.6163 5.67018 11.4246 5.2035L12.5244 4.5685C13.3327 4.10182 13.6097 3.06824 13.143 2.25992C12.6763 1.45161 11.6427 1.17466 10.8344 1.64134Z" stroke="#A989F5" stroke-miterlimit="10"/>
</g>
<defs>
<clipPath id="clip0_391_822">
<rect width="24" height="24" fill="white" transform="translate(0 0.911133)"/>
</clipPath>
</defs>
</svg>
